<svg xmlns="http://www.w3.org/2000/svg" width="24" height="24" viewBox="0 0 24 24">
    <path fill="#5E6878" fill-rule="evenodd" d="M21.167 1C22.179 1 23 1.82 23 2.833v18.334C23 22.179 22.18 23 21.167 23H2.833A1.833 1.833 0 0 1 1 21.167V2.833C1 1.821 1.82 1 2.833 1h18.334zm0 19.708V3.292a.458.458 0 0 0-.459-.459H3.292a.458.458 0 0 0-.459.459v17.416c0 .253.206.459.459.459h17.416a.458.458 0 0 0 .459-.459zM6.146 4.667h11.708c.69 0 1.25.56 1.25 1.25V8c0 .69-.56 1.25-1.25 1.25H6.146c-.69 0-1.25-.56-1.25-1.25V5.917c0-.69.56-1.25 1.25-1.25zm-.5 6.416h4.917a.75.75 0 0 1 .75.75v.334a.75.75 0 0 1-.75.75H5.646a.75.75 0 0 1-.75-.75v-.334a.75.75 0 0 1 .75-.75zm0 3.209h4.917a.75.75 0 0 1 .75.75v.333a.75.75 0 0 1-.75.75H5.646a.75.75 0 0 1-.75-.75v-.333a.75.75 0 0 1 .75-.75zm0 3.208h4.917a.75.75 0 0 1 .75.75v.333a.75.75 0 0 1-.75.75H5.646a.75.75 0 0 1-.75-.75v-.333a.75.75 0 0 1 .75-.75zm7.792 0h4.916a.75.75 0 0 1 .75.75v.333a.75.75 0 0 1-.75.75h-4.916a.75.75 0 0 1-.75-.75v-.333a.75.75 0 0 1 .75-.75zm0-6.417h4.916a.75.75 0 0 1 .75.75v.334a.75.75 0 0 1-.75.75h-4.916a.75.75 0 0 1-.75-.75v-.334a.75.75 0 0 1 .75-.75zm0 3.209h4.916a.75.75 0 0 1 .75.75v.333a.75.75 0 0 1-.75.75h-4.916a.75.75 0 0 1-.75-.75v-.333a.75.75 0 0 1 .75-.75z"/>
</svg>
